{
"type": "FeatureCollection",
"name": "AFR0211_channel",
"crs": { "type": "name", "properties": { "name": "urn:ogc:def:crs:EPSG::32733" } },
"features": [
{ "type": "Feature", "properties": { "id": 1 }, "geometry": { "type": "MultiPolygon", "coordinates": [ [ [ [ 336505.906382921035402, 8623956.01485101133585 ], [ 338153.76034007105045, 8623920.766638025641441 ], [ 338171.384446564654354, 8622792.823822434991598 ], [ 336514.71843616780825, 8622819.25998217612505 ], [ 336505.906382921035402, 8623956.01485101133585 ] ] ] ] } }
]
}
